{
    "inputMessageMetadata": {
        "messagePayload": {
            "connectorName": "#_custom_mule_metadata_type_#",
            "typeId": "crtPayload"
        }
    },
    "outputMessageMetadata": {},
    "id": "66fab3b3-43cf-418a-8f91-4efbbfb8044a",
    "version": "5.2.0.0"
}